vhdl xil_defaultlib "../../../bd/design_1/ipshared/xilinx.com/nco_v1_0/hdl/vhdl/nco.vhd" 
vhdl xil_defaultlib "../../../bd/design_1/ipshared/xilinx.com/nco_v1_0/hdl/vhdl/nco_AXILiteS_s_axi.vhd" 
vhdl xil_defaultlib "../../../bd/design_1/ipshared/xilinx.com/nco_v1_0/hdl/vhdl/nco_sine_lut_V.vhd" 
vhdl xil_defaultlib "../../../bd/design_1/ip/design_1_nco_0_1/sim/design_1_nco_0_1.vhd" 
vhdl lms_pcore_v1_00_a "../../../bd/design_1/ipshared/ac.uk/lms_pcore_v1_0/hdl/vhdl/LMS_pkg.vhd" 
vhdl lms_pcore_v1_00_a "../../../bd/design_1/ipshared/ac.uk/lms_pcore_v1_0/hdl/vhdl/LMS.vhd" 
vhdl lms_pcore_v1_00_a "../../../bd/design_1/ipshared/ac.uk/lms_pcore_v1_0/hdl/vhdl/lms_pcore_axi_lite_module.vhd" 
vhdl lms_pcore_v1_00_a "../../../bd/design_1/ipshared/ac.uk/lms_pcore_v1_0/hdl/vhdl/lms_pcore_addr_decoder.vhd" 
vhdl lms_pcore_v1_00_a "../../../bd/design_1/ipshared/ac.uk/lms_pcore_v1_0/hdl/vhdl/lms_pcore_dut.vhd" 
vhdl lms_pcore_v1_00_a "../../../bd/design_1/ipshared/ac.uk/lms_pcore_v1_0/hdl/vhdl/lms_pcore_cop.vhd" 
vhdl lms_pcore_v1_00_a "../../../bd/design_1/ipshared/ac.uk/lms_pcore_v1_0/hdl/vhdl/lms_pcore_axi_lite.vhd" 
vhdl lms_pcore_v1_00_a "../../../bd/design_1/ipshared/ac.uk/lms_pcore_v1_0/hdl/vhdl/lms_pcore.vhd" 
vhdl xil_defaultlib "../../../bd/design_1/ip/design_1_lms_pcore_0_1/sim/design_1_lms_pcore_0_1.vhd" 
vhdl xil_defaultlib "../../../bd/design_1/ipshared/ac.uk/led_controller_v1_0/hdl/led_controller_v1_0_S00_AXI.vhd" 
vhdl xil_defaultlib "../../../bd/design_1/ipshared/ac.uk/led_controller_v1_0/hdl/led_controller_v1_0.vhd" 
vhdl xil_defaultlib "../../../bd/design_1/ip/design_1_led_controller_0_2/sim/design_1_led_controller_0_2.vhd" 
vhdl lib_cdc_v1_0_2 "../../../ipstatic/lib_cdc_v1_0/hdl/src/vhdl/cdc_sync.vhd" 
vhdl proc_sys_reset_v5_0_8 "../../../ipstatic/proc_sys_reset_v5_0/hdl/src/vhdl/upcnt_n.vhd" 
vhdl proc_sys_reset_v5_0_8 "../../../ipstatic/proc_sys_reset_v5_0/hdl/src/vhdl/sequence_psr.vhd" 
vhdl proc_sys_reset_v5_0_8 "../../../ipstatic/proc_sys_reset_v5_0/hdl/src/vhdl/lpf.vhd" 
vhdl proc_sys_reset_v5_0_8 "../../../ipstatic/proc_sys_reset_v5_0/hdl/src/vhdl/proc_sys_reset.vhd" 
vhdl xil_defaultlib "../../../bd/design_1/ip/design_1_rst_processing_system7_0_100M_1/sim/design_1_rst_processing_system7_0_100M_1.vhd" 
vhdl fifo_generator_v13_0_1 "../../../ipstatic/fifo_generator_v13_0/simulation/fifo_generator_vhdl_beh.vhd" 
vhdl fifo_generator_v13_0_1 "../../../ipstatic/fifo_generator_v13_0/hdl/fifo_generator_v13_0_rfs.vhd" 
vhdl xil_defaultlib "../../../bd/design_1/ipshared/xilinx.com/zybo_audio_ctrl_v1_0/zybo_audio_codec.srcs/sources_1/imports/i2s_audio/family_support.vhd" 
vhdl xil_defaultlib "../../../bd/design_1/ipshared/xilinx.com/zybo_audio_ctrl_v1_0/zybo_audio_codec.srcs/sources_1/imports/i2s_audio/common_types.vhd" 
vhdl xil_defaultlib "../../../bd/design_1/ipshared/xilinx.com/zybo_audio_ctrl_v1_0/zybo_audio_codec.srcs/sources_1/imports/i2s_audio/pselect_f.vhd" 
vhdl xil_defaultlib "../../../bd/design_1/ipshared/xilinx.com/zybo_audio_ctrl_v1_0/zybo_audio_codec.srcs/sources_1/imports/i2s_audio/address_decoder.vhd" 
vhdl xil_defaultlib "../../../bd/design_1/ipshared/xilinx.com/zybo_audio_ctrl_v1_0/zybo_audio_codec.srcs/sources_1/imports/i2s_audio/slave_attachment.vhd" 
vhdl xil_defaultlib "../../../bd/design_1/ipshared/xilinx.com/zybo_audio_ctrl_v1_0/zybo_audio_codec.srcs/sources_1/imports/i2s_audio/iis_ser.vhd" 
vhdl xil_defaultlib "../../../bd/design_1/ipshared/xilinx.com/zybo_audio_ctrl_v1_0/zybo_audio_codec.srcs/sources_1/imports/i2s_audio/iis_deser.vhd" 
vhdl xil_defaultlib "../../../bd/design_1/ipshared/xilinx.com/zybo_audio_ctrl_v1_0/zybo_audio_codec.srcs/sources_1/imports/i2s_audio/user_logic.vhd" 
vhdl xil_defaultlib "../../../bd/design_1/ipshared/xilinx.com/zybo_audio_ctrl_v1_0/zybo_audio_codec.srcs/sources_1/imports/i2s_audio/axi_lite_ipif.vhd" 
vhdl xil_defaultlib "../../../bd/design_1/ipshared/xilinx.com/zybo_audio_ctrl_v1_0/zybo_audio_codec.srcs/sources_1/imports/i2s_audio/i2s_ctrl.vhd" 
vhdl xil_defaultlib "../../../bd/design_1/ip/design_1_zybo_audio_ctrl_0_1/sim/design_1_zybo_audio_ctrl_0_1.vhd" 
vhdl axi_lite_ipif_v3_0_3 "../../../ipstatic/axi_lite_ipif_v3_0/hdl/src/vhdl/ipif_pkg.vhd" 
vhdl axi_lite_ipif_v3_0_3 "../../../ipstatic/axi_lite_ipif_v3_0/hdl/src/vhdl/pselect_f.vhd" 
vhdl axi_lite_ipif_v3_0_3 "../../../ipstatic/axi_lite_ipif_v3_0/hdl/src/vhdl/address_decoder.vhd" 
vhdl axi_lite_ipif_v3_0_3 "../../../ipstatic/axi_lite_ipif_v3_0/hdl/src/vhdl/slave_attachment.vhd" 
vhdl axi_lite_ipif_v3_0_3 "../../../ipstatic/axi_lite_ipif_v3_0/hdl/src/vhdl/axi_lite_ipif.vhd" 
vhdl interrupt_control_v3_1_3 "../../../ipstatic/interrupt_control_v3_1/hdl/src/vhdl/interrupt_control.vhd" 
vhdl axi_gpio_v2_0_9 "../../../ipstatic/axi_gpio_v2_0/hdl/src/vhdl/gpio_core.vhd" 
vhdl axi_gpio_v2_0_9 "../../../ipstatic/axi_gpio_v2_0/hdl/src/vhdl/axi_gpio.vhd" 
vhdl xil_defaultlib "../../../bd/design_1/ip/design_1_axi_gpio_0_1/sim/design_1_axi_gpio_0_1.vhd" 
vhdl xil_defaultlib "../../../bd/design_1/ip/design_1_axi_gpio_1_1/sim/design_1_axi_gpio_1_1.vhd" 
vhdl xil_defaultlib "../../../bd/design_1/hdl/design_1.vhd" 
vhdl xil_defaultlib "../../../bd/design_1/ip/design_1_xadc_wiz_0_1/proc_common_v3_20_a/hdl/src/vhdl/design_1_xadc_wiz_0_1_conv_funs_pkg.vhd" 
vhdl xil_defaultlib "../../../bd/design_1/ip/design_1_xadc_wiz_0_1/proc_common_v3_20_a/hdl/src/vhdl/design_1_xadc_wiz_0_1_proc_common_pkg.vhd" 
vhdl xil_defaultlib "../../../bd/design_1/ip/design_1_xadc_wiz_0_1/proc_common_v3_20_a/hdl/src/vhdl/design_1_xadc_wiz_0_1_ipif_pkg.vhd" 
vhdl xil_defaultlib "../../../bd/design_1/ip/design_1_xadc_wiz_0_1/proc_common_v3_20_a/hdl/src/vhdl/design_1_xadc_wiz_0_1_family_support.vhd" 
vhdl xil_defaultlib "../../../bd/design_1/ip/design_1_xadc_wiz_0_1/proc_common_v3_20_a/hdl/src/vhdl/design_1_xadc_wiz_0_1_family.vhd" 
vhdl xil_defaultlib "../../../bd/design_1/ip/design_1_xadc_wiz_0_1/proc_common_v3_20_a/hdl/src/vhdl/design_1_xadc_wiz_0_1_soft_reset.vhd" 
vhdl xil_defaultlib "../../../bd/design_1/ip/design_1_xadc_wiz_0_1/proc_common_v3_20_a/hdl/src/vhdl/design_1_xadc_wiz_0_1_pselect_f.vhd" 
vhdl xil_defaultlib "../../../bd/design_1/ip/design_1_xadc_wiz_0_1/axi_lite_ipif_v1_01_a/hdl/src/vhdl/design_1_xadc_wiz_0_1_address_decoder.vhd" 
vhdl xil_defaultlib "../../../bd/design_1/ip/design_1_xadc_wiz_0_1/axi_lite_ipif_v1_01_a/hdl/src/vhdl/design_1_xadc_wiz_0_1_slave_attachment.vhd" 
vhdl xil_defaultlib "../../../bd/design_1/ip/design_1_xadc_wiz_0_1/interrupt_control_v2_01_a/hdl/src/vhdl/design_1_xadc_wiz_0_1_interrupt_control.vhd" 
vhdl xil_defaultlib "../../../bd/design_1/ip/design_1_xadc_wiz_0_1/axi_lite_ipif_v1_01_a/hdl/src/vhdl/design_1_xadc_wiz_0_1_axi_lite_ipif.vhd" 
vhdl xil_defaultlib "../../../bd/design_1/ip/design_1_xadc_wiz_0_1/design_1_xadc_wiz_0_1_xadc_core_drp.vhd" 
vhdl xil_defaultlib "../../../bd/design_1/ip/design_1_xadc_wiz_0_1/design_1_xadc_wiz_0_1_axi_xadc.vhd" 
vhdl xil_defaultlib "../../../bd/design_1/ip/design_1_xadc_wiz_0_1/design_1_xadc_wiz_0_1.vhd" 
vhdl blk_mem_gen_v8_3_1 "../../../ipstatic/blk_mem_gen_v8_3/simulation/blk_mem_gen_v8_3.vhd" 
vhdl axi_bram_ctrl_v4_0_6 "../../../ipstatic/axi_bram_ctrl_v4_0/hdl/vhdl/srl_fifo.vhd" 
vhdl axi_bram_ctrl_v4_0_6 "../../../ipstatic/axi_bram_ctrl_v4_0/hdl/vhdl/axi_bram_ctrl_funcs.vhd" 
vhdl axi_bram_ctrl_v4_0_6 "../../../ipstatic/axi_bram_ctrl_v4_0/hdl/vhdl/coregen_comp_defs.vhd" 
vhdl axi_bram_ctrl_v4_0_6 "../../../ipstatic/axi_bram_ctrl_v4_0/hdl/vhdl/axi_lite_if.vhd" 
vhdl axi_bram_ctrl_v4_0_6 "../../../ipstatic/axi_bram_ctrl_v4_0/hdl/vhdl/checkbit_handler_64.vhd" 
vhdl axi_bram_ctrl_v4_0_6 "../../../ipstatic/axi_bram_ctrl_v4_0/hdl/vhdl/checkbit_handler.vhd" 
vhdl axi_bram_ctrl_v4_0_6 "../../../ipstatic/axi_bram_ctrl_v4_0/hdl/vhdl/correct_one_bit_64.vhd" 
vhdl axi_bram_ctrl_v4_0_6 "../../../ipstatic/axi_bram_ctrl_v4_0/hdl/vhdl/correct_one_bit.vhd" 
vhdl axi_bram_ctrl_v4_0_6 "../../../ipstatic/axi_bram_ctrl_v4_0/hdl/vhdl/xor18.vhd" 
vhdl axi_bram_ctrl_v4_0_6 "../../../ipstatic/axi_bram_ctrl_v4_0/hdl/vhdl/parity.vhd" 
vhdl axi_bram_ctrl_v4_0_6 "../../../ipstatic/axi_bram_ctrl_v4_0/hdl/vhdl/ecc_gen.vhd" 
vhdl axi_bram_ctrl_v4_0_6 "../../../ipstatic/axi_bram_ctrl_v4_0/hdl/vhdl/lite_ecc_reg.vhd" 
vhdl axi_bram_ctrl_v4_0_6 "../../../ipstatic/axi_bram_ctrl_v4_0/hdl/vhdl/axi_lite.vhd" 
vhdl axi_bram_ctrl_v4_0_6 "../../../ipstatic/axi_bram_ctrl_v4_0/hdl/vhdl/sng_port_arb.vhd" 
vhdl axi_bram_ctrl_v4_0_6 "../../../ipstatic/axi_bram_ctrl_v4_0/hdl/vhdl/ua_narrow.vhd" 
vhdl axi_bram_ctrl_v4_0_6 "../../../ipstatic/axi_bram_ctrl_v4_0/hdl/vhdl/wrap_brst.vhd" 
vhdl axi_bram_ctrl_v4_0_6 "../../../ipstatic/axi_bram_ctrl_v4_0/hdl/vhdl/rd_chnl.vhd" 
vhdl axi_bram_ctrl_v4_0_6 "../../../ipstatic/axi_bram_ctrl_v4_0/hdl/vhdl/wr_chnl.vhd" 
vhdl axi_bram_ctrl_v4_0_6 "../../../ipstatic/axi_bram_ctrl_v4_0/hdl/vhdl/full_axi.vhd" 
vhdl axi_bram_ctrl_v4_0_6 "../../../ipstatic/axi_bram_ctrl_v4_0/hdl/vhdl/axi_bram_ctrl_top.vhd" 
vhdl axi_bram_ctrl_v4_0_6 "../../../ipstatic/axi_bram_ctrl_v4_0/hdl/vhdl/axi_bram_ctrl.vhd" 
vhdl xil_defaultlib "../../../bd/design_1/ip/design_1_axi_bram_ctrl_0_0/sim/design_1_axi_bram_ctrl_0_0.vhd" 
vhdl xil_defaultlib "../../../bd/design_1/ip/design_1_blk_mem_gen_0_0/sim/design_1_blk_mem_gen_0_0.vhd" 
vhdl xil_defaultlib "../../../bd/design_1/ip/design_1_axi_gpio_2_0/sim/design_1_axi_gpio_2_0.vhd" 

nosort
