Language File-Name                                             IP        Library                        File-Path                                                                                                                           
Verilog, processing_system7_bfm_v2_0_arb_wr.v,                 design_1, xil_defaultlib,                ../../../ipstatic/processing_system7_bfm_v2_0/hdl/processing_system7_bfm_v2_0_arb_wr.v                                              
Verilog, processing_system7_bfm_v2_0_arb_rd.v,                 design_1, xil_defaultlib,                ../../../ipstatic/processing_system7_bfm_v2_0/hdl/processing_system7_bfm_v2_0_arb_rd.v                                              
Verilog, processing_system7_bfm_v2_0_arb_wr_4.v,               design_1, xil_defaultlib,                ../../../ipstatic/processing_system7_bfm_v2_0/hdl/processing_system7_bfm_v2_0_arb_wr_4.v                                            
Verilog, processing_system7_bfm_v2_0_arb_rd_4.v,               design_1, xil_defaultlib,                ../../../ipstatic/processing_system7_bfm_v2_0/hdl/processing_system7_bfm_v2_0_arb_rd_4.v                                            
Verilog, processing_system7_bfm_v2_0_arb_hp2_3.v,              design_1, xil_defaultlib,                ../../../ipstatic/processing_system7_bfm_v2_0/hdl/processing_system7_bfm_v2_0_arb_hp2_3.v                                           
Verilog, processing_system7_bfm_v2_0_arb_hp0_1.v,              design_1, xil_defaultlib,                ../../../ipstatic/processing_system7_bfm_v2_0/hdl/processing_system7_bfm_v2_0_arb_hp0_1.v                                           
Verilog, processing_system7_bfm_v2_0_ssw_hp.v,                 design_1, xil_defaultlib,                ../../../ipstatic/processing_system7_bfm_v2_0/hdl/processing_system7_bfm_v2_0_ssw_hp.v                                              
Verilog, processing_system7_bfm_v2_0_sparse_mem.v,             design_1, xil_defaultlib,                ../../../ipstatic/processing_system7_bfm_v2_0/hdl/processing_system7_bfm_v2_0_sparse_mem.v                                          
Verilog, processing_system7_bfm_v2_0_reg_map.v,                design_1, xil_defaultlib,                ../../../ipstatic/processing_system7_bfm_v2_0/hdl/processing_system7_bfm_v2_0_reg_map.v                                             
Verilog, processing_system7_bfm_v2_0_ocm_mem.v,                design_1, xil_defaultlib,                ../../../ipstatic/processing_system7_bfm_v2_0/hdl/processing_system7_bfm_v2_0_ocm_mem.v                                             
Verilog, processing_system7_bfm_v2_0_intr_wr_mem.v,            design_1, xil_defaultlib,                ../../../ipstatic/processing_system7_bfm_v2_0/hdl/processing_system7_bfm_v2_0_intr_wr_mem.v                                         
Verilog, processing_system7_bfm_v2_0_intr_rd_mem.v,            design_1, xil_defaultlib,                ../../../ipstatic/processing_system7_bfm_v2_0/hdl/processing_system7_bfm_v2_0_intr_rd_mem.v                                         
Verilog, processing_system7_bfm_v2_0_fmsw_gp.v,                design_1, xil_defaultlib,                ../../../ipstatic/processing_system7_bfm_v2_0/hdl/processing_system7_bfm_v2_0_fmsw_gp.v                                             
Verilog, processing_system7_bfm_v2_0_regc.v,                   design_1, xil_defaultlib,                ../../../ipstatic/processing_system7_bfm_v2_0/hdl/processing_system7_bfm_v2_0_regc.v                                                
Verilog, processing_system7_bfm_v2_0_ocmc.v,                   design_1, xil_defaultlib,                ../../../ipstatic/processing_system7_bfm_v2_0/hdl/processing_system7_bfm_v2_0_ocmc.v                                                
Verilog, processing_system7_bfm_v2_0_interconnect_model.v,     design_1, xil_defaultlib,                ../../../ipstatic/processing_system7_bfm_v2_0/hdl/processing_system7_bfm_v2_0_interconnect_model.v                                  
Verilog, processing_system7_bfm_v2_0_gen_reset.v,              design_1, xil_defaultlib,                ../../../ipstatic/processing_system7_bfm_v2_0/hdl/processing_system7_bfm_v2_0_gen_reset.v                                           
Verilog, processing_system7_bfm_v2_0_gen_clock.v,              design_1, xil_defaultlib,                ../../../ipstatic/processing_system7_bfm_v2_0/hdl/processing_system7_bfm_v2_0_gen_clock.v                                           
Verilog, processing_system7_bfm_v2_0_ddrc.v,                   design_1, xil_defaultlib,                ../../../ipstatic/processing_system7_bfm_v2_0/hdl/processing_system7_bfm_v2_0_ddrc.v                                                
Verilog, processing_system7_bfm_v2_0_axi_slave.v,              design_1, xil_defaultlib,                ../../../ipstatic/processing_system7_bfm_v2_0/hdl/processing_system7_bfm_v2_0_axi_slave.v                                           
Verilog, processing_system7_bfm_v2_0_axi_master.v,             design_1, xil_defaultlib,                ../../../ipstatic/processing_system7_bfm_v2_0/hdl/processing_system7_bfm_v2_0_axi_master.v                                          
Verilog, processing_system7_bfm_v2_0_afi_slave.v,              design_1, xil_defaultlib,                ../../../ipstatic/processing_system7_bfm_v2_0/hdl/processing_system7_bfm_v2_0_afi_slave.v                                           
Verilog, processing_system7_bfm_v2_0_processing_system7_bfm.v, design_1, xil_defaultlib,                ../../../ipstatic/processing_system7_bfm_v2_0/hdl/processing_system7_bfm_v2_0_processing_system7_bfm.v                              
Verilog, design_1_processing_system7_0_1.v,                    design_1, xil_defaultlib,                ../../../bd/design_1/ip/design_1_processing_system7_0_1/sim/design_1_processing_system7_0_1.v                                       
VHDL,    nco.vhd,                                              design_1, xil_defaultlib,                ../../../bd/design_1/ipshared/xilinx.com/nco_v1_0/hdl/vhdl/nco.vhd                                                                  
VHDL,    nco_AXILiteS_s_axi.vhd,                               design_1, xil_defaultlib,                ../../../bd/design_1/ipshared/xilinx.com/nco_v1_0/hdl/vhdl/nco_AXILiteS_s_axi.vhd                                                   
VHDL,    nco_sine_lut_V.vhd,                                   design_1, xil_defaultlib,                ../../../bd/design_1/ipshared/xilinx.com/nco_v1_0/hdl/vhdl/nco_sine_lut_V.vhd                                                       
VHDL,    design_1_nco_0_1.vhd,                                 design_1, xil_defaultlib,                ../../../bd/design_1/ip/design_1_nco_0_1/sim/design_1_nco_0_1.vhd                                                                   
VHDL,    LMS_pkg.vhd,                                          design_1, lms_pcore_v1_00_a,             ../../../bd/design_1/ipshared/ac.uk/lms_pcore_v1_0/hdl/vhdl/LMS_pkg.vhd                                                             
VHDL,    LMS.vhd,                                              design_1, lms_pcore_v1_00_a,             ../../../bd/design_1/ipshared/ac.uk/lms_pcore_v1_0/hdl/vhdl/LMS.vhd                                                                 
VHDL,    lms_pcore_axi_lite_module.vhd,                        design_1, lms_pcore_v1_00_a,             ../../../bd/design_1/ipshared/ac.uk/lms_pcore_v1_0/hdl/vhdl/lms_pcore_axi_lite_module.vhd                                           
VHDL,    lms_pcore_addr_decoder.vhd,                           design_1, lms_pcore_v1_00_a,             ../../../bd/design_1/ipshared/ac.uk/lms_pcore_v1_0/hdl/vhdl/lms_pcore_addr_decoder.vhd                                              
VHDL,    lms_pcore_dut.vhd,                                    design_1, lms_pcore_v1_00_a,             ../../../bd/design_1/ipshared/ac.uk/lms_pcore_v1_0/hdl/vhdl/lms_pcore_dut.vhd                                                       
VHDL,    lms_pcore_cop.vhd,                                    design_1, lms_pcore_v1_00_a,             ../../../bd/design_1/ipshared/ac.uk/lms_pcore_v1_0/hdl/vhdl/lms_pcore_cop.vhd                                                       
VHDL,    lms_pcore_axi_lite.vhd,                               design_1, lms_pcore_v1_00_a,             ../../../bd/design_1/ipshared/ac.uk/lms_pcore_v1_0/hdl/vhdl/lms_pcore_axi_lite.vhd                                                  
VHDL,    lms_pcore.vhd,                                        design_1, lms_pcore_v1_00_a,             ../../../bd/design_1/ipshared/ac.uk/lms_pcore_v1_0/hdl/vhdl/lms_pcore.vhd                                                           
VHDL,    design_1_lms_pcore_0_1.vhd,                           design_1, xil_defaultlib,                ../../../bd/design_1/ip/design_1_lms_pcore_0_1/sim/design_1_lms_pcore_0_1.vhd                                                       
VHDL,    led_controller_v1_0_S00_AXI.vhd,                      design_1, xil_defaultlib,                ../../../bd/design_1/ipshared/ac.uk/led_controller_v1_0/hdl/led_controller_v1_0_S00_AXI.vhd                                         
VHDL,    led_controller_v1_0.vhd,                              design_1, xil_defaultlib,                ../../../bd/design_1/ipshared/ac.uk/led_controller_v1_0/hdl/led_controller_v1_0.vhd                                                 
VHDL,    design_1_led_controller_0_2.vhd,                      design_1, xil_defaultlib,                ../../../bd/design_1/ip/design_1_led_controller_0_2/sim/design_1_led_controller_0_2.vhd                                             
VHDL,    cdc_sync.vhd,                                         design_1, lib_cdc_v1_0_2,                ../../../ipstatic/lib_cdc_v1_0/hdl/src/vhdl/cdc_sync.vhd                                                                            
VHDL,    upcnt_n.vhd,                                          design_1, proc_sys_reset_v5_0_8,         ../../../ipstatic/proc_sys_reset_v5_0/hdl/src/vhdl/upcnt_n.vhd                                                                      
VHDL,    sequence_psr.vhd,                                     design_1, proc_sys_reset_v5_0_8,         ../../../ipstatic/proc_sys_reset_v5_0/hdl/src/vhdl/sequence_psr.vhd                                                                 
VHDL,    lpf.vhd,                                              design_1, proc_sys_reset_v5_0_8,         ../../../ipstatic/proc_sys_reset_v5_0/hdl/src/vhdl/lpf.vhd                                                                          
VHDL,    proc_sys_reset.vhd,                                   design_1, proc_sys_reset_v5_0_8,         ../../../ipstatic/proc_sys_reset_v5_0/hdl/src/vhdl/proc_sys_reset.vhd                                                               
VHDL,    design_1_rst_processing_system7_0_100M_1.vhd,         design_1, xil_defaultlib,                ../../../bd/design_1/ip/design_1_rst_processing_system7_0_100M_1/sim/design_1_rst_processing_system7_0_100M_1.vhd                   
Verilog, generic_baseblocks_v2_1_carry_and.v,                  design_1, generic_baseblocks_v2_1_0,     ../../../ipstatic/generic_baseblocks_v2_1/hdl/verilog/generic_baseblocks_v2_1_carry_and.v                                           
Verilog, generic_baseblocks_v2_1_carry_latch_and.v,            design_1, generic_baseblocks_v2_1_0,     ../../../ipstatic/generic_baseblocks_v2_1/hdl/verilog/generic_baseblocks_v2_1_carry_latch_and.v                                     
Verilog, generic_baseblocks_v2_1_carry_latch_or.v,             design_1, generic_baseblocks_v2_1_0,     ../../../ipstatic/generic_baseblocks_v2_1/hdl/verilog/generic_baseblocks_v2_1_carry_latch_or.v                                      
Verilog, generic_baseblocks_v2_1_carry_or.v,                   design_1, generic_baseblocks_v2_1_0,     ../../../ipstatic/generic_baseblocks_v2_1/hdl/verilog/generic_baseblocks_v2_1_carry_or.v                                            
Verilog, generic_baseblocks_v2_1_carry.v,                      design_1, generic_baseblocks_v2_1_0,     ../../../ipstatic/generic_baseblocks_v2_1/hdl/verilog/generic_baseblocks_v2_1_carry.v                                               
Verilog, generic_baseblocks_v2_1_command_fifo.v,               design_1, generic_baseblocks_v2_1_0,     ../../../ipstatic/generic_baseblocks_v2_1/hdl/verilog/generic_baseblocks_v2_1_command_fifo.v                                        
Verilog, generic_baseblocks_v2_1_comparator_mask_static.v,     design_1, generic_baseblocks_v2_1_0,     ../../../ipstatic/generic_baseblocks_v2_1/hdl/verilog/generic_baseblocks_v2_1_comparator_mask_static.v                              
Verilog, generic_baseblocks_v2_1_comparator_mask.v,            design_1, generic_baseblocks_v2_1_0,     ../../../ipstatic/generic_baseblocks_v2_1/hdl/verilog/generic_baseblocks_v2_1_comparator_mask.v                                     
Verilog, generic_baseblocks_v2_1_comparator_sel_mask_static.v, design_1, generic_baseblocks_v2_1_0,     ../../../ipstatic/generic_baseblocks_v2_1/hdl/verilog/generic_baseblocks_v2_1_comparator_sel_mask_static.v                          
Verilog, generic_baseblocks_v2_1_comparator_sel_mask.v,        design_1, generic_baseblocks_v2_1_0,     ../../../ipstatic/generic_baseblocks_v2_1/hdl/verilog/generic_baseblocks_v2_1_comparator_sel_mask.v                                 
Verilog, generic_baseblocks_v2_1_comparator_sel_static.v,      design_1, generic_baseblocks_v2_1_0,     ../../../ipstatic/generic_baseblocks_v2_1/hdl/verilog/generic_baseblocks_v2_1_comparator_sel_static.v                               
Verilog, generic_baseblocks_v2_1_comparator_sel.v,             design_1, generic_baseblocks_v2_1_0,     ../../../ipstatic/generic_baseblocks_v2_1/hdl/verilog/generic_baseblocks_v2_1_comparator_sel.v                                      
Verilog, generic_baseblocks_v2_1_comparator_static.v,          design_1, generic_baseblocks_v2_1_0,     ../../../ipstatic/generic_baseblocks_v2_1/hdl/verilog/generic_baseblocks_v2_1_comparator_static.v                                   
Verilog, generic_baseblocks_v2_1_comparator.v,                 design_1, generic_baseblocks_v2_1_0,     ../../../ipstatic/generic_baseblocks_v2_1/hdl/verilog/generic_baseblocks_v2_1_comparator.v                                          
Verilog, generic_baseblocks_v2_1_mux_enc.v,                    design_1, generic_baseblocks_v2_1_0,     ../../../ipstatic/generic_baseblocks_v2_1/hdl/verilog/generic_baseblocks_v2_1_mux_enc.v                                             
Verilog, generic_baseblocks_v2_1_mux.v,                        design_1, generic_baseblocks_v2_1_0,     ../../../ipstatic/generic_baseblocks_v2_1/hdl/verilog/generic_baseblocks_v2_1_mux.v                                                 
Verilog, generic_baseblocks_v2_1_nto1_mux.v,                   design_1, generic_baseblocks_v2_1_0,     ../../../ipstatic/generic_baseblocks_v2_1/hdl/verilog/generic_baseblocks_v2_1_nto1_mux.v                                            
Verilog, axi_infrastructure_v1_1_axi2vector.v,                 design_1, axi_infrastructure_v1_1_0,     ../../../ipstatic/axi_infrastructure_v1_1/hdl/verilog/axi_infrastructure_v1_1_axi2vector.v                                          
Verilog, axi_infrastructure_v1_1_axic_srl_fifo.v,              design_1, axi_infrastructure_v1_1_0,     ../../../ipstatic/axi_infrastructure_v1_1/hdl/verilog/axi_infrastructure_v1_1_axic_srl_fifo.v                                       
Verilog, axi_infrastructure_v1_1_vector2axi.v,                 design_1, axi_infrastructure_v1_1_0,     ../../../ipstatic/axi_infrastructure_v1_1/hdl/verilog/axi_infrastructure_v1_1_vector2axi.v                                          
Verilog, axi_register_slice_v2_1_axic_register_slice.v,        design_1, axi_register_slice_v2_1_7,     ../../../ipstatic/axi_register_slice_v2_1/hdl/verilog/axi_register_slice_v2_1_axic_register_slice.v                                 
Verilog, axi_register_slice_v2_1_axi_register_slice.v,         design_1, axi_register_slice_v2_1_7,     ../../../ipstatic/axi_register_slice_v2_1/hdl/verilog/axi_register_slice_v2_1_axi_register_slice.v                                  
VHDL,    fifo_generator_vhdl_beh.vhd,                          design_1, fifo_generator_v13_0_1,        ../../../ipstatic/fifo_generator_v13_0/simulation/fifo_generator_vhdl_beh.vhd                                                       
VHDL,    fifo_generator_v13_0_rfs.vhd,                         design_1, fifo_generator_v13_0_1,        ../../../ipstatic/fifo_generator_v13_0/hdl/fifo_generator_v13_0_rfs.vhd                                                             
Verilog, axi_data_fifo_v2_1_axic_fifo.v,                       design_1, axi_data_fifo_v2_1_6,          ../../../ipstatic/axi_data_fifo_v2_1/hdl/verilog/axi_data_fifo_v2_1_axic_fifo.v                                                     
Verilog, axi_data_fifo_v2_1_fifo_gen.v,                        design_1, axi_data_fifo_v2_1_6,          ../../../ipstatic/axi_data_fifo_v2_1/hdl/verilog/axi_data_fifo_v2_1_fifo_gen.v                                                      
Verilog, axi_data_fifo_v2_1_axic_srl_fifo.v,                   design_1, axi_data_fifo_v2_1_6,          ../../../ipstatic/axi_data_fifo_v2_1/hdl/verilog/axi_data_fifo_v2_1_axic_srl_fifo.v                                                 
Verilog, axi_data_fifo_v2_1_axic_reg_srl_fifo.v,               design_1, axi_data_fifo_v2_1_6,          ../../../ipstatic/axi_data_fifo_v2_1/hdl/verilog/axi_data_fifo_v2_1_axic_reg_srl_fifo.v                                             
Verilog, axi_data_fifo_v2_1_ndeep_srl.v,                       design_1, axi_data_fifo_v2_1_6,          ../../../ipstatic/axi_data_fifo_v2_1/hdl/verilog/axi_data_fifo_v2_1_ndeep_srl.v                                                     
Verilog, axi_data_fifo_v2_1_axi_data_fifo.v,                   design_1, axi_data_fifo_v2_1_6,          ../../../ipstatic/axi_data_fifo_v2_1/hdl/verilog/axi_data_fifo_v2_1_axi_data_fifo.v                                                 
Verilog, axi_crossbar_v2_1_addr_arbiter_sasd.v,                design_1, axi_crossbar_v2_1_8,           ../../../ipstatic/axi_crossbar_v2_1/hdl/verilog/axi_crossbar_v2_1_addr_arbiter_sasd.v                                               
Verilog, axi_crossbar_v2_1_addr_arbiter.v,                     design_1, axi_crossbar_v2_1_8,           ../../../ipstatic/axi_crossbar_v2_1/hdl/verilog/axi_crossbar_v2_1_addr_arbiter.v                                                    
Verilog, axi_crossbar_v2_1_addr_decoder.v,                     design_1, axi_crossbar_v2_1_8,           ../../../ipstatic/axi_crossbar_v2_1/hdl/verilog/axi_crossbar_v2_1_addr_decoder.v                                                    
Verilog, axi_crossbar_v2_1_arbiter_resp.v,                     design_1, axi_crossbar_v2_1_8,           ../../../ipstatic/axi_crossbar_v2_1/hdl/verilog/axi_crossbar_v2_1_arbiter_resp.v                                                    
Verilog, axi_crossbar_v2_1_crossbar_sasd.v,                    design_1, axi_crossbar_v2_1_8,           ../../../ipstatic/axi_crossbar_v2_1/hdl/verilog/axi_crossbar_v2_1_crossbar_sasd.v                                                   
Verilog, axi_crossbar_v2_1_crossbar.v,                         design_1, axi_crossbar_v2_1_8,           ../../../ipstatic/axi_crossbar_v2_1/hdl/verilog/axi_crossbar_v2_1_crossbar.v                                                        
Verilog, axi_crossbar_v2_1_decerr_slave.v,                     design_1, axi_crossbar_v2_1_8,           ../../../ipstatic/axi_crossbar_v2_1/hdl/verilog/axi_crossbar_v2_1_decerr_slave.v                                                    
Verilog, axi_crossbar_v2_1_si_transactor.v,                    design_1, axi_crossbar_v2_1_8,           ../../../ipstatic/axi_crossbar_v2_1/hdl/verilog/axi_crossbar_v2_1_si_transactor.v                                                   
Verilog, axi_crossbar_v2_1_splitter.v,                         design_1, axi_crossbar_v2_1_8,           ../../../ipstatic/axi_crossbar_v2_1/hdl/verilog/axi_crossbar_v2_1_splitter.v                                                        
Verilog, axi_crossbar_v2_1_wdata_mux.v,                        design_1, axi_crossbar_v2_1_8,           ../../../ipstatic/axi_crossbar_v2_1/hdl/verilog/axi_crossbar_v2_1_wdata_mux.v                                                       
Verilog, axi_crossbar_v2_1_wdata_router.v,                     design_1, axi_crossbar_v2_1_8,           ../../../ipstatic/axi_crossbar_v2_1/hdl/verilog/axi_crossbar_v2_1_wdata_router.v                                                    
Verilog, axi_crossbar_v2_1_axi_crossbar.v,                     design_1, axi_crossbar_v2_1_8,           ../../../ipstatic/axi_crossbar_v2_1/hdl/verilog/axi_crossbar_v2_1_axi_crossbar.v                                                    
Verilog, design_1_xbar_1.v,                                    design_1, xil_defaultlib,                ../../../bd/design_1/ip/design_1_xbar_1/sim/design_1_xbar_1.v                                                                       
VHDL,    family_support.vhd,                                   design_1, xil_defaultlib,                ../../../bd/design_1/ipshared/xilinx.com/zybo_audio_ctrl_v1_0/zybo_audio_codec.srcs/sources_1/imports/i2s_audio/family_support.vhd  
VHDL,    common_types.vhd,                                     design_1, xil_defaultlib,                ../../../bd/design_1/ipshared/xilinx.com/zybo_audio_ctrl_v1_0/zybo_audio_codec.srcs/sources_1/imports/i2s_audio/common_types.vhd    
VHDL,    pselect_f.vhd,                                        design_1, xil_defaultlib,                ../../../bd/design_1/ipshared/xilinx.com/zybo_audio_ctrl_v1_0/zybo_audio_codec.srcs/sources_1/imports/i2s_audio/pselect_f.vhd       
VHDL,    address_decoder.vhd,                                  design_1, xil_defaultlib,                ../../../bd/design_1/ipshared/xilinx.com/zybo_audio_ctrl_v1_0/zybo_audio_codec.srcs/sources_1/imports/i2s_audio/address_decoder.vhd 
VHDL,    slave_attachment.vhd,                                 design_1, xil_defaultlib,                ../../../bd/design_1/ipshared/xilinx.com/zybo_audio_ctrl_v1_0/zybo_audio_codec.srcs/sources_1/imports/i2s_audio/slave_attachment.vhd
VHDL,    iis_ser.vhd,                                          design_1, xil_defaultlib,                ../../../bd/design_1/ipshared/xilinx.com/zybo_audio_ctrl_v1_0/zybo_audio_codec.srcs/sources_1/imports/i2s_audio/iis_ser.vhd         
VHDL,    iis_deser.vhd,                                        design_1, xil_defaultlib,                ../../../bd/design_1/ipshared/xilinx.com/zybo_audio_ctrl_v1_0/zybo_audio_codec.srcs/sources_1/imports/i2s_audio/iis_deser.vhd       
VHDL,    user_logic.vhd,                                       design_1, xil_defaultlib,                ../../../bd/design_1/ipshared/xilinx.com/zybo_audio_ctrl_v1_0/zybo_audio_codec.srcs/sources_1/imports/i2s_audio/user_logic.vhd      
VHDL,    axi_lite_ipif.vhd,                                    design_1, xil_defaultlib,                ../../../bd/design_1/ipshared/xilinx.com/zybo_audio_ctrl_v1_0/zybo_audio_codec.srcs/sources_1/imports/i2s_audio/axi_lite_ipif.vhd   
VHDL,    i2s_ctrl.vhd,                                         design_1, xil_defaultlib,                ../../../bd/design_1/ipshared/xilinx.com/zybo_audio_ctrl_v1_0/zybo_audio_codec.srcs/sources_1/imports/i2s_audio/i2s_ctrl.vhd        
VHDL,    design_1_zybo_audio_ctrl_0_1.vhd,                     design_1, xil_defaultlib,                ../../../bd/design_1/ip/design_1_zybo_audio_ctrl_0_1/sim/design_1_zybo_audio_ctrl_0_1.vhd                                           
VHDL,    ipif_pkg.vhd,                                         design_1, axi_lite_ipif_v3_0_3,          ../../../ipstatic/axi_lite_ipif_v3_0/hdl/src/vhdl/ipif_pkg.vhd                                                                      
VHDL,    pselect_f.vhd,                                        design_1, axi_lite_ipif_v3_0_3,          ../../../ipstatic/axi_lite_ipif_v3_0/hdl/src/vhdl/pselect_f.vhd                                                                     
VHDL,    address_decoder.vhd,                                  design_1, axi_lite_ipif_v3_0_3,          ../../../ipstatic/axi_lite_ipif_v3_0/hdl/src/vhdl/address_decoder.vhd                                                               
VHDL,    slave_attachment.vhd,                                 design_1, axi_lite_ipif_v3_0_3,          ../../../ipstatic/axi_lite_ipif_v3_0/hdl/src/vhdl/slave_attachment.vhd                                                              
VHDL,    axi_lite_ipif.vhd,                                    design_1, axi_lite_ipif_v3_0_3,          ../../../ipstatic/axi_lite_ipif_v3_0/hdl/src/vhdl/axi_lite_ipif.vhd                                                                 
VHDL,    interrupt_control.vhd,                                design_1, interrupt_control_v3_1_3,      ../../../ipstatic/interrupt_control_v3_1/hdl/src/vhdl/interrupt_control.vhd                                                         
VHDL,    gpio_core.vhd,                                        design_1, axi_gpio_v2_0_9,               ../../../ipstatic/axi_gpio_v2_0/hdl/src/vhdl/gpio_core.vhd                                                                          
VHDL,    axi_gpio.vhd,                                         design_1, axi_gpio_v2_0_9,               ../../../ipstatic/axi_gpio_v2_0/hdl/src/vhdl/axi_gpio.vhd                                                                           
VHDL,    design_1_axi_gpio_0_1.vhd,                            design_1, xil_defaultlib,                ../../../bd/design_1/ip/design_1_axi_gpio_0_1/sim/design_1_axi_gpio_0_1.vhd                                                         
VHDL,    design_1_axi_gpio_1_1.vhd,                            design_1, xil_defaultlib,                ../../../bd/design_1/ip/design_1_axi_gpio_1_1/sim/design_1_axi_gpio_1_1.vhd                                                         
VHDL,    design_1.vhd,                                         design_1, xil_defaultlib,                ../../../bd/design_1/hdl/design_1.vhd                                                                                               
VHDL,    design_1_xadc_wiz_0_1_conv_funs_pkg.vhd,              design_1, xil_defaultlib,                ../../../bd/design_1/ip/design_1_xadc_wiz_0_1/proc_common_v3_20_a/hdl/src/vhdl/design_1_xadc_wiz_0_1_conv_funs_pkg.vhd              
VHDL,    design_1_xadc_wiz_0_1_proc_common_pkg.vhd,            design_1, xil_defaultlib,                ../../../bd/design_1/ip/design_1_xadc_wiz_0_1/proc_common_v3_20_a/hdl/src/vhdl/design_1_xadc_wiz_0_1_proc_common_pkg.vhd            
VHDL,    design_1_xadc_wiz_0_1_ipif_pkg.vhd,                   design_1, xil_defaultlib,                ../../../bd/design_1/ip/design_1_xadc_wiz_0_1/proc_common_v3_20_a/hdl/src/vhdl/design_1_xadc_wiz_0_1_ipif_pkg.vhd                   
VHDL,    design_1_xadc_wiz_0_1_family_support.vhd,             design_1, xil_defaultlib,                ../../../bd/design_1/ip/design_1_xadc_wiz_0_1/proc_common_v3_20_a/hdl/src/vhdl/design_1_xadc_wiz_0_1_family_support.vhd             
VHDL,    design_1_xadc_wiz_0_1_family.vhd,                     design_1, xil_defaultlib,                ../../../bd/design_1/ip/design_1_xadc_wiz_0_1/proc_common_v3_20_a/hdl/src/vhdl/design_1_xadc_wiz_0_1_family.vhd                     
VHDL,    design_1_xadc_wiz_0_1_soft_reset.vhd,                 design_1, xil_defaultlib,                ../../../bd/design_1/ip/design_1_xadc_wiz_0_1/proc_common_v3_20_a/hdl/src/vhdl/design_1_xadc_wiz_0_1_soft_reset.vhd                 
VHDL,    design_1_xadc_wiz_0_1_pselect_f.vhd,                  design_1, xil_defaultlib,                ../../../bd/design_1/ip/design_1_xadc_wiz_0_1/proc_common_v3_20_a/hdl/src/vhdl/design_1_xadc_wiz_0_1_pselect_f.vhd                  
VHDL,    design_1_xadc_wiz_0_1_address_decoder.vhd,            design_1, xil_defaultlib,                ../../../bd/design_1/ip/design_1_xadc_wiz_0_1/axi_lite_ipif_v1_01_a/hdl/src/vhdl/design_1_xadc_wiz_0_1_address_decoder.vhd          
VHDL,    design_1_xadc_wiz_0_1_slave_attachment.vhd,           design_1, xil_defaultlib,                ../../../bd/design_1/ip/design_1_xadc_wiz_0_1/axi_lite_ipif_v1_01_a/hdl/src/vhdl/design_1_xadc_wiz_0_1_slave_attachment.vhd         
VHDL,    design_1_xadc_wiz_0_1_interrupt_control.vhd,          design_1, xil_defaultlib,                ../../../bd/design_1/ip/design_1_xadc_wiz_0_1/interrupt_control_v2_01_a/hdl/src/vhdl/design_1_xadc_wiz_0_1_interrupt_control.vhd    
VHDL,    design_1_xadc_wiz_0_1_axi_lite_ipif.vhd,              design_1, xil_defaultlib,                ../../../bd/design_1/ip/design_1_xadc_wiz_0_1/axi_lite_ipif_v1_01_a/hdl/src/vhdl/design_1_xadc_wiz_0_1_axi_lite_ipif.vhd            
VHDL,    design_1_xadc_wiz_0_1_xadc_core_drp.vhd,              design_1, xil_defaultlib,                ../../../bd/design_1/ip/design_1_xadc_wiz_0_1/design_1_xadc_wiz_0_1_xadc_core_drp.vhd                                               
VHDL,    design_1_xadc_wiz_0_1_axi_xadc.vhd,                   design_1, xil_defaultlib,                ../../../bd/design_1/ip/design_1_xadc_wiz_0_1/design_1_xadc_wiz_0_1_axi_xadc.vhd                                                    
VHDL,    design_1_xadc_wiz_0_1.vhd,                            design_1, xil_defaultlib,                ../../../bd/design_1/ip/design_1_xadc_wiz_0_1/design_1_xadc_wiz_0_1.vhd                                                             
VHDL,    blk_mem_gen_v8_3.vhd,                                 design_1, blk_mem_gen_v8_3_1,            ../../../ipstatic/blk_mem_gen_v8_3/simulation/blk_mem_gen_v8_3.vhd                                                                  
VHDL,    srl_fifo.vhd,                                         design_1, axi_bram_ctrl_v4_0_6,          ../../../ipstatic/axi_bram_ctrl_v4_0/hdl/vhdl/srl_fifo.vhd                                                                          
VHDL,    axi_bram_ctrl_funcs.vhd,                              design_1, axi_bram_ctrl_v4_0_6,          ../../../ipstatic/axi_bram_ctrl_v4_0/hdl/vhdl/axi_bram_ctrl_funcs.vhd                                                               
VHDL,    coregen_comp_defs.vhd,                                design_1, axi_bram_ctrl_v4_0_6,          ../../../ipstatic/axi_bram_ctrl_v4_0/hdl/vhdl/coregen_comp_defs.vhd                                                                 
VHDL,    axi_lite_if.vhd,                                      design_1, axi_bram_ctrl_v4_0_6,          ../../../ipstatic/axi_bram_ctrl_v4_0/hdl/vhdl/axi_lite_if.vhd                                                                       
VHDL,    checkbit_handler_64.vhd,                              design_1, axi_bram_ctrl_v4_0_6,          ../../../ipstatic/axi_bram_ctrl_v4_0/hdl/vhdl/checkbit_handler_64.vhd                                                               
VHDL,    checkbit_handler.vhd,                                 design_1, axi_bram_ctrl_v4_0_6,          ../../../ipstatic/axi_bram_ctrl_v4_0/hdl/vhdl/checkbit_handler.vhd                                                                  
VHDL,    correct_one_bit_64.vhd,                               design_1, axi_bram_ctrl_v4_0_6,          ../../../ipstatic/axi_bram_ctrl_v4_0/hdl/vhdl/correct_one_bit_64.vhd                                                                
VHDL,    correct_one_bit.vhd,                                  design_1, axi_bram_ctrl_v4_0_6,          ../../../ipstatic/axi_bram_ctrl_v4_0/hdl/vhdl/correct_one_bit.vhd                                                                   
VHDL,    xor18.vhd,                                            design_1, axi_bram_ctrl_v4_0_6,          ../../../ipstatic/axi_bram_ctrl_v4_0/hdl/vhdl/xor18.vhd                                                                             
VHDL,    parity.vhd,                                           design_1, axi_bram_ctrl_v4_0_6,          ../../../ipstatic/axi_bram_ctrl_v4_0/hdl/vhdl/parity.vhd                                                                            
VHDL,    ecc_gen.vhd,                                          design_1, axi_bram_ctrl_v4_0_6,          ../../../ipstatic/axi_bram_ctrl_v4_0/hdl/vhdl/ecc_gen.vhd                                                                           
VHDL,    lite_ecc_reg.vhd,                                     design_1, axi_bram_ctrl_v4_0_6,          ../../../ipstatic/axi_bram_ctrl_v4_0/hdl/vhdl/lite_ecc_reg.vhd                                                                      
VHDL,    axi_lite.vhd,                                         design_1, axi_bram_ctrl_v4_0_6,          ../../../ipstatic/axi_bram_ctrl_v4_0/hdl/vhdl/axi_lite.vhd                                                                          
VHDL,    sng_port_arb.vhd,                                     design_1, axi_bram_ctrl_v4_0_6,          ../../../ipstatic/axi_bram_ctrl_v4_0/hdl/vhdl/sng_port_arb.vhd                                                                      
VHDL,    ua_narrow.vhd,                                        design_1, axi_bram_ctrl_v4_0_6,          ../../../ipstatic/axi_bram_ctrl_v4_0/hdl/vhdl/ua_narrow.vhd                                                                         
VHDL,    wrap_brst.vhd,                                        design_1, axi_bram_ctrl_v4_0_6,          ../../../ipstatic/axi_bram_ctrl_v4_0/hdl/vhdl/wrap_brst.vhd                                                                         
VHDL,    rd_chnl.vhd,                                          design_1, axi_bram_ctrl_v4_0_6,          ../../../ipstatic/axi_bram_ctrl_v4_0/hdl/vhdl/rd_chnl.vhd                                                                           
VHDL,    wr_chnl.vhd,                                          design_1, axi_bram_ctrl_v4_0_6,          ../../../ipstatic/axi_bram_ctrl_v4_0/hdl/vhdl/wr_chnl.vhd                                                                           
VHDL,    full_axi.vhd,                                         design_1, axi_bram_ctrl_v4_0_6,          ../../../ipstatic/axi_bram_ctrl_v4_0/hdl/vhdl/full_axi.vhd                                                                          
VHDL,    axi_bram_ctrl_top.vhd,                                design_1, axi_bram_ctrl_v4_0_6,          ../../../ipstatic/axi_bram_ctrl_v4_0/hdl/vhdl/axi_bram_ctrl_top.vhd                                                                 
VHDL,    axi_bram_ctrl.vhd,                                    design_1, axi_bram_ctrl_v4_0_6,          ../../../ipstatic/axi_bram_ctrl_v4_0/hdl/vhdl/axi_bram_ctrl.vhd                                                                     
VHDL,    design_1_axi_bram_ctrl_0_0.vhd,                       design_1, xil_defaultlib,                ../../../bd/design_1/ip/design_1_axi_bram_ctrl_0_0/sim/design_1_axi_bram_ctrl_0_0.vhd                                               
VHDL,    design_1_blk_mem_gen_0_0.vhd,                         design_1, xil_defaultlib,                ../../../bd/design_1/ip/design_1_blk_mem_gen_0_0/sim/design_1_blk_mem_gen_0_0.vhd                                                   
VHDL,    design_1_axi_gpio_2_0.vhd,                            design_1, xil_defaultlib,                ../../../bd/design_1/ip/design_1_axi_gpio_2_0/sim/design_1_axi_gpio_2_0.vhd                                                         
Verilog, axi_protocol_converter_v2_1_a_axi3_conv.v,            design_1, axi_protocol_converter_v2_1_7, ../../../ipstatic/axi_protocol_converter_v2_1/hdl/verilog/axi_protocol_converter_v2_1_a_axi3_conv.v                                 
Verilog, axi_protocol_converter_v2_1_axi3_conv.v,              design_1, axi_protocol_converter_v2_1_7, ../../../ipstatic/axi_protocol_converter_v2_1/hdl/verilog/axi_protocol_converter_v2_1_axi3_conv.v                                   
Verilog, axi_protocol_converter_v2_1_axilite_conv.v,           design_1, axi_protocol_converter_v2_1_7, ../../../ipstatic/axi_protocol_converter_v2_1/hdl/verilog/axi_protocol_converter_v2_1_axilite_conv.v                                
Verilog, axi_protocol_converter_v2_1_r_axi3_conv.v,            design_1, axi_protocol_converter_v2_1_7, ../../../ipstatic/axi_protocol_converter_v2_1/hdl/verilog/axi_protocol_converter_v2_1_r_axi3_conv.v                                 
Verilog, axi_protocol_converter_v2_1_w_axi3_conv.v,            design_1, axi_protocol_converter_v2_1_7, ../../../ipstatic/axi_protocol_converter_v2_1/hdl/verilog/axi_protocol_converter_v2_1_w_axi3_conv.v                                 
Verilog, axi_protocol_converter_v2_1_b_downsizer.v,            design_1, axi_protocol_converter_v2_1_7, ../../../ipstatic/axi_protocol_converter_v2_1/hdl/verilog/axi_protocol_converter_v2_1_b_downsizer.v                                 
Verilog, axi_protocol_converter_v2_1_decerr_slave.v,           design_1, axi_protocol_converter_v2_1_7, ../../../ipstatic/axi_protocol_converter_v2_1/hdl/verilog/axi_protocol_converter_v2_1_decerr_slave.v                                
Verilog, axi_protocol_converter_v2_1_b2s_simple_fifo.v,        design_1, axi_protocol_converter_v2_1_7, ../../../ipstatic/axi_protocol_converter_v2_1/hdl/verilog/axi_protocol_converter_v2_1_b2s_simple_fifo.v                             
Verilog, axi_protocol_converter_v2_1_b2s_wrap_cmd.v,           design_1, axi_protocol_converter_v2_1_7, ../../../ipstatic/axi_protocol_converter_v2_1/hdl/verilog/axi_protocol_converter_v2_1_b2s_wrap_cmd.v                                
Verilog, axi_protocol_converter_v2_1_b2s_incr_cmd.v,           design_1, axi_protocol_converter_v2_1_7, ../../../ipstatic/axi_protocol_converter_v2_1/hdl/verilog/axi_protocol_converter_v2_1_b2s_incr_cmd.v                                
Verilog, axi_protocol_converter_v2_1_b2s_wr_cmd_fsm.v,         design_1, axi_protocol_converter_v2_1_7, ../../../ipstatic/axi_protocol_converter_v2_1/hdl/verilog/axi_protocol_converter_v2_1_b2s_wr_cmd_fsm.v                              
Verilog, axi_protocol_converter_v2_1_b2s_rd_cmd_fsm.v,         design_1, axi_protocol_converter_v2_1_7, ../../../ipstatic/axi_protocol_converter_v2_1/hdl/verilog/axi_protocol_converter_v2_1_b2s_rd_cmd_fsm.v                              
Verilog, axi_protocol_converter_v2_1_b2s_cmd_translator.v,     design_1, axi_protocol_converter_v2_1_7, ../../../ipstatic/axi_protocol_converter_v2_1/hdl/verilog/axi_protocol_converter_v2_1_b2s_cmd_translator.v                          
Verilog, axi_protocol_converter_v2_1_b2s_b_channel.v,          design_1, axi_protocol_converter_v2_1_7, ../../../ipstatic/axi_protocol_converter_v2_1/hdl/verilog/axi_protocol_converter_v2_1_b2s_b_channel.v                               
Verilog, axi_protocol_converter_v2_1_b2s_r_channel.v,          design_1, axi_protocol_converter_v2_1_7, ../../../ipstatic/axi_protocol_converter_v2_1/hdl/verilog/axi_protocol_converter_v2_1_b2s_r_channel.v                               
Verilog, axi_protocol_converter_v2_1_b2s_aw_channel.v,         design_1, axi_protocol_converter_v2_1_7, ../../../ipstatic/axi_protocol_converter_v2_1/hdl/verilog/axi_protocol_converter_v2_1_b2s_aw_channel.v                              
Verilog, axi_protocol_converter_v2_1_b2s_ar_channel.v,         design_1, axi_protocol_converter_v2_1_7, ../../../ipstatic/axi_protocol_converter_v2_1/hdl/verilog/axi_protocol_converter_v2_1_b2s_ar_channel.v                              
Verilog, axi_protocol_converter_v2_1_b2s.v,                    design_1, axi_protocol_converter_v2_1_7, ../../../ipstatic/axi_protocol_converter_v2_1/hdl/verilog/axi_protocol_converter_v2_1_b2s.v                                         
Verilog, axi_protocol_converter_v2_1_axi_protocol_converter.v, design_1, axi_protocol_converter_v2_1_7, ../../../ipstatic/axi_protocol_converter_v2_1/hdl/verilog/axi_protocol_converter_v2_1_axi_protocol_converter.v                      
Verilog, design_1_auto_pc_0.v,                                 design_1, xil_defaultlib,                ../../../bd/design_1/ip/design_1_auto_pc_0/sim/design_1_auto_pc_0.v                                                                 
Verilog, design_1_auto_pc_1.v,                                 design_1, xil_defaultlib,                ../../../bd/design_1/ip/design_1_auto_pc_1/sim/design_1_auto_pc_1.v                                                                 
Verilog, design_1_auto_pc_2.v,                                 design_1, xil_defaultlib,                ../../../bd/design_1/ip/design_1_auto_pc_2/sim/design_1_auto_pc_2.v                                                                 
Verilog, design_1_auto_pc_3.v,                                 design_1, xil_defaultlib,                ../../../bd/design_1/ip/design_1_auto_pc_3/sim/design_1_auto_pc_3.v                                                                 
Verilog, design_1_auto_pc_4.v,                                 design_1, xil_defaultlib,                ../../../bd/design_1/ip/design_1_auto_pc_4/sim/design_1_auto_pc_4.v                                                                 
Verilog, design_1_auto_pc_5.v,                                 design_1, xil_defaultlib,                ../../../bd/design_1/ip/design_1_auto_pc_5/sim/design_1_auto_pc_5.v                                                                 
Verilog, design_1_auto_pc_6.v,                                 design_1, xil_defaultlib,                ../../../bd/design_1/ip/design_1_auto_pc_6/sim/design_1_auto_pc_6.v                                                                 
Verilog, design_1_auto_pc_7.v,                                 design_1, xil_defaultlib,                ../../../bd/design_1/ip/design_1_auto_pc_7/sim/design_1_auto_pc_7.v                                                                 
Verilog, design_1_auto_pc_8.v,                                 design_1, xil_defaultlib,                ../../../bd/design_1/ip/design_1_auto_pc_8/sim/design_1_auto_pc_8.v                                                                 
Verilog, glbl.v,                                               *,        xil_defaultlib,                glbl.v                                                                                                                              
