<?xml version="1.0" encoding="UTF-8"?>
<session version="1.0">
<refactoring comment="Delete resource &apos;audio/src/helloworld.c&apos;" deleteContents="false" description="Delete resource &apos;audio/src/helloworld.c&apos;" element1="/audio/src/helloworld.c" flags="7" id="org.eclipse.ltk.core.refactoring.delete.resources" resources="1" stamp="1517292764270"/>
</session>